[gd_scene load_steps=4 format=2]

[ext_resource path="res://menus/MenuState/BaseMenuState.tscn" type="PackedScene" id=1]
[ext_resource path="res://menus/MenuState/SharedStates/ConfigOptions/ConfigOptions.gd" type="Script" id=2]
[ext_resource path="res://menus/Models/ButtonModel.tscn" type="PackedScene" id=3]

[node name="ConfigOptions" instance=ExtResource( 1 )]
anchor_left = 0.5
anchor_top = 0.5
anchor_right = 0.5
anchor_bottom = 0.5
margin_left = -512.0
margin_top = -300.0
margin_right = 512.0
margin_bottom = 300.0
script = ExtResource( 2 )

[node name="VBoxContainer" type="VBoxContainer" parent="." index="0"]
anchor_left = 0.5
anchor_top = 0.5
anchor_right = 0.5
anchor_bottom = 0.5
margin_left = -68.0
margin_top = -29.5
margin_right = 68.0
margin_bottom = 29.5
alignment = 1
__meta__ = {
"_edit_use_anchors_": false
}

[node name="Sound" parent="VBoxContainer" index="0" instance=ExtResource( 3 )]
margin_top = 28.0
margin_right = 137.0
margin_bottom = 45.0
text = "Sound Options"

[node name="Controls" parent="VBoxContainer" index="1" instance=ExtResource( 3 )]
margin_top = 49.0
margin_right = 137.0
margin_bottom = 66.0
text = "Controls Options"

[node name="Back" parent="VBoxContainer" index="2" instance=ExtResource( 3 )]
margin_top = 70.0
margin_right = 137.0
margin_bottom = 87.0
text = "Back"
[connection signal="pressed" from="VBoxContainer/Sound" to="." method="_on_Sound_pressed"]
[connection signal="pressed" from="VBoxContainer/Controls" to="." method="_on_Controls_pressed"]
[connection signal="pressed" from="VBoxContainer/Back" to="." method="_on_Back_pressed"]
