[gd_scene load_steps=6 format=2]

[ext_resource path="res://menus/BaseMenu/BaseMenu.gd" type="Script" id=1]
[ext_resource path="res://menus/StartingMenu/States/InitialMenu/InitialMenu.tscn" type="PackedScene" id=2]
[ext_resource path="res://menus/StartingMenu/States/ConfigurationsMenu/ConfigurationsMenu.tscn" type="PackedScene" id=3]
[ext_resource path="res://menus/StartingMenu/States/ChapterSelection/ChapterSelection.tscn" type="PackedScene" id=4]

[sub_resource type="StyleBoxFlat" id=1]
bg_color = Color( 0, 0, 0, 1 )

[node name="BaseMenu" type="Panel"]
margin_right = 40.0
margin_bottom = 40.0
custom_styles/panel = SubResource( 1 )
script = ExtResource( 1 )
__meta__ = {
"_edit_use_anchors_": false
}
states_scenes = [ ExtResource( 2 ), ExtResource( 3 ), null, ExtResource( 4 ), null, null, null ]
