[gd_scene load_steps=5 format=2]

[ext_resource path="res://assets/tileset/1bitpack_kenney_1.1/monochrome_transparent_packed.png" type="Texture" id=1]
[ext_resource path="res://entities/objects/Bow/Bow.gd" type="Script" id=2]
[ext_resource path="res://entities/objects/Bow/Arrow/Arrow.tscn" type="PackedScene" id=3]

[sub_resource type="Animation" id=1]
resource_name = "Shoot"
length = 0.7
tracks/0/type = "value"
tracks/0/path = NodePath(".:scale")
tracks/0/interp = 2
tracks/0/loop_wrap = true
tracks/0/imported = false
tracks/0/enabled = true
tracks/0/keys = {
"times": PoolRealArray( 0, 0.1, 0.2, 0.3, 0.5, 0.7 ),
"transitions": PoolRealArray( 1, 1, 1, 1, 1, 1 ),
"update": 0,
"values": [ Vector2( 1, 1 ), Vector2( 3, 0.2 ), Vector2( 3, 0.2 ), Vector2( 0.5, 1 ), Vector2( 1.5, 1 ), Vector2( 1, 1 ) ]
}

[node name="Bow" type="Node2D"]
script = ExtResource( 2 )
arrow = ExtResource( 3 )

[node name="Animation" type="AnimationPlayer" parent="."]
anims/Shoot = SubResource( 1 )

[node name="Sprite" type="Sprite" parent="."]
modulate = Color( 1, 0.9885, 0.31, 1 )
rotation = -0.785398
texture = ExtResource( 1 )
offset = Vector2( -1, -1 )
vframes = 22
hframes = 48
frame = 325

[node name="Shoot_Timer" type="Timer" parent="."]
process_mode = 0
wait_time = 0.01
[connection signal="timeout" from="Shoot_Timer" to="." method="_on_Shoot_timeout"]
