[gd_scene load_steps=4 format=2]

[ext_resource path="res://assets/tileset/plataformpack_kenney/monochrome_tilemap_transparent_packed.png" type="Texture" id=1]
[ext_resource path="res://entities/objects/Spike/Spike.gd" type="Script" id=2]














[sub_resource type="RectangleShape2D" id=1]
extents = Vector2( 7.96391, 3.60209 )

[node name="Spike" type="Area2D"]
script = ExtResource( 2 )

[node name="Sprite" type="Sprite" parent="."]
texture = ExtResource( 1 )
vframes = 20
hframes = 20
frame = 122

[node name="CollisionShape2D" type="CollisionShape2D" parent="."]
position = Vector2( 0, 4.34313 )
shape = SubResource( 1 )
[connection signal="body_entered" from="." to="." method="_on_Spike_body_entered"]
