[gd_scene load_steps=3 format=2]

[ext_resource path="res://maps/Base_Room/Base_Room.tscn" type="PackedScene" id=1]
[ext_resource path="res://entities/objects/Bow/Bow.tscn" type="PackedScene" id=2]

[node name="Chapter2_2" instance=ExtResource( 1 )]

[node name="Limitadores" parent="." index="2"]
tile_data = PoolIntArray( -1, 3, 1, -65536, 3, 9, -65535, 3, 196609, -65534, 3, 196609, -65533, 3, 196609, -65532, 3, 196609, -65531, 3, 196609, -65530, 3, 196609, -65529, 3, 196609, -65528, 3, 196609, -65527, 3, 196609, -65526, 3, 196609, -65525, 3, 196609, -65524, 3, 196609, -65523, 3, 196609, -65522, 3, 196609, -65521, 3, 196609, -65520, 3, 196609, -65519, 3, 196609, -65518, 3, 10, -65517, 3, 2, 65535, 3, 131073, 0, 3, 131074, 18, 3, 131073, 19, 3, 131074, 131071, 3, 131073, 65536, 3, 131074, 65554, 3, 131073, 65555, 3, 131074, 196607, 3, 131073, 131072, 3, 131074, 131090, 3, 131073, 131091, 3, 131074, 262143, 3, 131073, 196608, 3, 65539, 196609, 3, 9, 196610, 3, 196609, 196611, 3, 196610, 196623, 3, 1, 196624, 3, 65536, 196625, 3, 65536, 196626, 3, 65540, 196627, 3, 131074, 327679, 3, 131073, 262144, 3, 196619, 262145, 3, 131074, 262158, 3, 1, 262159, 3, 65540, 262160, 3, 196619, 262161, 3, 196619, 262162, 3, 196619, 262163, 3, 131074, 393215, 3, 131073, 327680, 3, 196619, 327681, 3, 65539, 327682, 3, 65536, 327683, 3, 2, 327694, 3, 131073, 327695, 3, 196619, 327696, 3, 196619, 327697, 3, 196619, 327698, 3, 196619, 327699, 3, 131074, 458751, 3, 131073, 393216, 3, 196619, 393217, 3, 196619, 393218, 3, 196619, 393219, 3, 131074, 393229, 3, 1, 393230, 3, 65540, 393231, 3, 196619, 393232, 3, 196619, 393233, 3, 196619, 393234, 3, 196619, 393235, 3, 131074, 524287, 3, 131073, 458752, 3, 196619, 458753, 3, 196619, 458754, 3, 196619, 458755, 3, 131074, 458765, 3, 131073, 458766, 3, 196619, 458767, 3, 196619, 458768, 3, 196619, 458769, 3, 196619, 458770, 3, 196619, 458771, 3, 131074, 589823, 3, 65537, 524288, 3, 131072, 524289, 3, 131072, 524290, 3, 131072, 524291, 3, 65547, 524292, 3, 196609, 524293, 3, 196609, 524294, 3, 196609, 524295, 3, 196609, 524296, 3, 196609, 524297, 3, 196609, 524298, 3, 196609, 524299, 3, 196609, 524300, 3, 196609, 524301, 3, 65544, 524302, 3, 131072, 524303, 3, 131072, 524304, 3, 131072, 524305, 3, 131072, 524306, 3, 131072, 524307, 3, 65538 )

[node name="Camera" parent="." index="4"]
zoom = Vector2( 0.3, 0.3 )

[node name="Spawn_Point" parent="." index="5"]
position = Vector2( 264, 40 )

[node name="Exit" parent="." index="6"]
position = Vector2( 40, 40 )

[node name="Bow" parent="Objects" index="0" instance=ExtResource( 2 )]
position = Vector2( 40, 72 )
shoot_timer = 1.0
shoot_speed = 40.0
